country,country_code,currency,state,state_code,population
Big Land,BLD,CHK,Left Province,LEF,10100
,,,Right Province,RIG,778030
,,,Topside,TSD,2200340
,,,Center Province,CTR,1340922
Mordor,MDR,GUL,Udun,UDN,2000110
,,,Gorgoroth,GOR,3120900
,,,Nurn,NRN,1100000
,,,Kand,KND,2500000
Numberland,NUM,DIG,One,ONE,1150000
,,,Two,TWO,25320000
,,,Three,TRE,310000
,,,Four,FOR,400000